{
  "usingComponents": {
    "t-input": "/miniprogram_npm/tdesign-miniprogram/input/input",
    "t-date-time-picker": "/miniprogram_npm/tdesign-miniprogram/date-time-picker/date-time-picker",
    "t-cell": "/miniprogram_npm/tdesign-miniprogram/cell/cell",
    "t-textarea": "/miniprogram_npm/tdesign-miniprogram/textarea/textarea",
    "t-picker": "/miniprogram_npm/tdesign-miniprogram/picker/picker",
    "t-picker-item": "/miniprogram_npm/tdesign-miniprogram/picker/picker-column",
    "Tag":"/components/tagslist/tagslist",
    "t-upload": "/miniprogram_npm/tdesign-miniprogram/upload/upload"
  },
  "navigationBarTitleText": "创建活动",
  "navigationBarTextStyle": "white",
  "navigationBarBackgroundColor": "#B54434"
}